{
  "ambientDependencies": {
    "express": "github:DefinitelyTyped/DefinitelyTyped/express/express.d.ts#dd638012d63e069f2c99d06ef4dcc9616a943ee4",
    "mime": "github:DefinitelyTyped/DefinitelyTyped/mime/mime.d.ts#cb5206a8ac1c9a3ddfd126f5ecea6729b2361452",
    "node": "github:DefinitelyTyped/DefinitelyTyped/node/node.d.ts#48c1e3c1d6baefa4f1a126f188c27c4fefd36bff",
    "serve-static": "github:DefinitelyTyped/DefinitelyTyped/serve-static/serve-static.d.ts#0fa4e9e61385646ea6a4cba2aef357353d2ce77f"
  }
}
